Disconnected reactants
peptide-L-methionine-(S)-S-oxide[c]
2-amino-3-carboxymuconate semialdehyde[c]
(1aalpha,2beta,3alpha,11calpha)-1a,2,3,11c-tetrahydro-6,11-dimethylbenzo[6,7]phenanthro[3,4-b]oxirene-2,3-diol[c]
G00038[c]
oxalate[m]
4-aminobutyrate[s]
15-epi-lipoxin B4[r]
16alpha-hydroxyestrone[r]
ethanol[p]
1-acylglycerol-3P-stea[c]
N,N-dimethylindoliumolate[c]
(8Z,11Z)-eicosadienoylcarnitine[r]
4-oxo-9-cis-retinal[r]
1-acylglycerol-3P-palm[c]
10-hydroxy-octadec-(12Z)-enoate-9-beta-D-glucuronide[r]
neurotensin[c]
deoxyuridine[c]
pyridoxamine[s]
6-trans-LTB4[p]
hemoglobin[s]
pregnenolone sulfate[r]
O-D-mannosylprotein[c]
5,12,18R-TriHEPE[c]
dITP[n]
4-hydroxyestrone-2-S-glutathione[p]
5(S)-HPETE[m]
1-acylglycerol-3P-11-docose[c]
D-lactate[m]
phenylacetaldehyde[m]
15-epi-lipoxin B5[r]
GD1c[s]
6-trans-12-epi-LTB4[p]
10,11-dihydro-12R-hydroxy-LTC4[p]
O-acetylcarnitine[p]
leukotriene E4[n]
dehydroascorbic acid[s]
cytochrome-C[m]
S-palmitoylprotein[c]
acetamidopropanal[p]
5,15-DiHETE[c]
4-oxo-all-trans-retinoate[c]
9-cis-retinol[c]
(15Z)-tetracosenoylcarnitine[r]
histamine[c]
protamine[c]
tetradecanoylcarnitine[r]
xanthurenate[s]
isoleucine[s]
oxytocin[c]
leukotriene B4[r]
trioxilin A3[p]
eicosanoylcarnitine[r]
NO[s]
pentadecanoylcarnitine[m]
dIDP[n]
arachidonyl-carnitine[m]
benzo[a]pyrene[c]
hippurate[c]
1-acylglycerol-3P-10,13,16-docosa[c]
5-oxo-12(R)-hydroxy-eicosa-(8E,10E,14Z)-trienoyl-CoA[r]
thymidine[s]
ribulose-5-phosphate[r]
glucosamine[s]
leukotriene A4[r]
tRNA-queuine[c]
alpha-hydroxyisocaproic acid[c]
xanthine[p]
spermidine dialdehyde[p]
dTMP[l]
L-arginyl-protein[c]
NG,NG-dimethyl-L-arginine[c]
1-acylglycerol-3P-lin[c]
lysosomal-enzyme-N-acetyl-D-glucosaminyl-phospho-D-mannose[c]
octadecenoylcarnitine(5)[m]
tetradecenoylcarnitine(7)[r]
aflatoxin B1-exo-8,9-epoxide[s]
12-O-D-glucuronoside-13-hydroxyoctadec-(9Z)-enoate[c]
20-OH-hepoxilin A3[r]
1-acylglycerol-3P-cis-vac[c]
13,16,19-docosatrienoylcarnitine[r]
(6Z,9Z)-octadecadienoylcarnitine[m]
1-acylglycerol-3P-tetraco[c]
prostaglandin G1[c]
vitamin D derivatives[c]
dichloroacetate[c]
N-tetradecanoylglycylpeptide[c]
procollagen-L-lysine[c]
5-S-glutathionyl-dopamine[c]
27alpha-hydroxy-7-dehydrocholesterol[c]
heneicosanoylcarnitine[r]
tRNA containing 6-isopentenyladenosine[c]
1-acylglycerol-3P-linolen[c]
heptadecenoylcarnitine(8)[m]
ferricytochrome C[m]
cholesterol-sulfate[r]
12-oxo-c-LTB3[r]
1-acylglycerol-3P-11-eico[c]
1-acylglycerol-3P-ol[c]
prostaglandin J2[r]
estrone 3-sulfate[r]
6-trans-LTB4[c]
eicosenoylcarnitine(9)[m]
estrone-3,4-quinone[p]
methanol[s]
1D-myo-inositol-bisdiphosphate-tetrakisphosphate[n]
L-sorbose[c]
5-hydroxykynurenine[c]
2-methyl-3-oxopropanoate[m]
AKG[m]
lipoyl-AMP[c]
choline[s]
1-acylglycerol-3P-7-hexade[c]
glutathionyl-3-hydroxykynurenine glucoside[c]
peptide sans lysine[r]
4-oxo-all-trans-retinoate[r]
eicosenoylcarnitine(7)[m]
spermic acid 1[c]
L-octanoylcarnitine[m]
21-hydroxyallopregnanolone[c]
5alpha-dihydrotestosterone-sulfate[s]
neuromedin B[c]
acetaldehyde[r]
1,2,3,4-tetrahydro-beta-carboline[c]
4-OH-13-cis-retinal[r]
malate[m]
4-hydroxyvitamin A1[r]
hydroxypyruvate[p]
12-hydroxy-13-O-D-glucuronoside-octadec-(9Z)-enoate[c]
ADP-ribose[s]
SM pool[r]
(8Z,11Z,14Z,17Z)-eicosatetraenoylcarnitine[r]
UDP-glucuronate[g]
pregnenolone[m]
docosahexaenoylcarnitine[m]
N-acetyl-LTE4[n]
11beta-hydroxyandrost-4-ene-3,17-dione[r]
O-propanoylcarnitine[p]
N-nitrosomethanamine[c]
5-oxo-6-trans-LTB4[p]
5,6-EET[r]
L-glutaminyl-tRNA(gln)[c]
[protein]-omega-N-(ADP-D-ribosyl)-L-arginine[c]
3,5-diiodo-L-thyronine-beta-D-glucuronoside[c]
5beta-cholestan-7alpha,27-diol-3-one[c]
omega-carboxy-trinor-LTB4[m]
xanthurenate-8-O-beta-D-glucoside[c]
queuine[c]
2-hydroxy-17beta-estradiol-1-S-glutathione[r]
1-nitronaphthalene[c]
estrone-2,3-semiquinone[r]
homocysteine-thiolactone[c]
1-deoxy-1-(N6-lysino)-D-fructose[c]
[protein]-L-serine[l]
1-acylglycerol-3P-trico[c]
adenosine[s]
hexadecenoylcarnitine(9)[r]
galactitol[c]
N-retinylidene-N-retinylethanolamine[c]
1-acylglycerol-3P-6,9,12,15,18,21-tetra[c]
1-acylglycerol-3P-5,8,11-eico[c]
4-hydroxy-17beta-estradiol-2-S-glutathione[m]
pantetheine[m]
11-HpODE[c]
thiamin-P[m]
5-methyltetrahydropteroyltri-L-glutamate[c]
13,14-dihydro-15-keto-PGD2[c]
octadecenoylcarnitine(7)[m]
lipoxin A4[c]
17beta-estradiol-3,4-quinone[p]
10,11-dihydro-12R-hydroxy-LTC4[m]
docosanoylcarnitine[m]
9-cis-4-oxo-13,14-dihydro-retinoate[c]
N-trimethyl-2-aminoethylphosphonate[c]
(5Z,8Z,11Z,14Z,17Z)-eicosapentaenoylcarnitine[m]
5(S)-HpEPE[c]
ADP-glucose[s]
(13Z,16Z)-docosadienoylcarnitine[r]
6,7-dihydro-12-epi-LTB4[m]
4-(n-nitrosomethylamino)-1-(3-pyridyl)-1-butanone[s]
2-hydroxy-17beta-estradiol-4-S-glutathione[m]
dehydroepiandrosterone sulfate[r]
15-epi-lipoxin B5[c]
3-carboxy-alpha-chromanol[m]
1-acylglycerol-3P-laur[c]
10,13,16-docosatrienoylcarnitine[m]
methaneselenol[c]
docosahexaenoylcarnitine[r]
leukotriene A4[n]
(6Z,9Z,12Z,15Z)-octadecatetraenoylcarnitine[r]
1,1-dichloroethylene[c]
dopachrome-O-semiquinone[c]
thymidine[m]
spermine dialdehyde[p]
tricosanoylcarnitine[r]
1-acylglycerol-3P-12,15,18,21-tetra[c]
1-acylglycerol-3P-arach[c]
5,12,20-TriHETE[c]
H+[s]
octadecenoylcarnitine(11)[r]
histone-L-lysine[c]
urate[p]
lysine[s]
prostaglandin H1[r]
sulfate[m]
isopentenyl-pPP[p]
prostaglandin E2[r]
nonadecanoylcarnitine[m]
(4Z,7Z,10Z,13Z,16Z)-docosapentaenoylcarnitine[r]
lipoxin A4[r]
1-naphthylamine[c]
nitrite[s]
5beta-cholestan-3alpha,7alpha,12alpha-triol[m]
hepoxilin B3[c]
3(S),10(R)-OH-octadeca-6-trans-4,12-cis-trienoate[p]
ocosatetraenoylcarnitine[r]
sn-glycero-3-phospho-1-inositol[c]
13,16,19-docosatrienoylcarnitine[m]
3alpha,7alpha,12alpha,25-tetrahydroxy-5beta-cholestane-24-one[r]
prostaglandin E3[n]
1-nitro-5,6-dihydroxy-dihydronaphthalene[c]
GT1a[g]
(5Z,8Z,11Z)-eicosatrienoylcarnitine[r]
18-COOH-LTB4[m]
peptidylglycine[c]
L-octanoylcarnitine[p]
fructoseglycine[c]
2-hydroxy-17beta-estradiol-4-S-glutathione[p]
trioxilin B3[c]
gamma-linolenoylcarnitine[m]
11,12-DHET[c]
15-epi-lipoxin A5[c]
dTDP-6-deoxy-L-mannose[c]
G00040[s]
alanine[s]
estrone-3,4-quinone[m]
10,13,16,19-docosatetraenoylcarnitine[m]
1-acylglycerol-3P-13-octade[c]
trichloroethene[s]
ferrocytochrome C[c]
gamma-L-glutamyl-L-alpha-aminobutyrate[c]
(ADP-D-ribosyl)n+1-acceptor[c]
dTMP[m]
L-dopa[s]
1,2-dehydrosalsolinol[c]
(9Z,12Z,15Z,18Z)-tetracosatetraenoylcarnitine[r]
glycylpeptide[c]
UDP-N-acetyl-D-galactosamine[l]
5-(S-L-cysteinyl)-dopaquinone[c]
15-deoxy-PGD2[c]
12,20-diHETE[r]
lipoxin A4[n]
12,13-hydroxyoctadec-9(z)-enoate[c]
H2O[r]
Na+[p]
5-androstene-3,17-dione[c]
18-hydroxy-arachidonate[r]
spermidine dialdehyde[c]
12-hydroxy-13-O-D-glucuronoside-octadec-(9Z)-enoate[r]
hexacosenoylcarnitine[r]
1,2-dihydroxy-3,4-epoxy-1,2,3,4-tetrahydronaphthalene[c]
acetylcarnosine[c]
docosenoylcarnitine[r]
eicosadienoylcarnitine[r]
2-methoxyestrone[r]
progesterone[s]
gamma-linolenoylcarnitine[r]
cholate[r]
deoxycytidine[n]
gamma-hydroxy-3-pyridinebutanoate[c]
1-acylglycerol-3P-9-octade[c]
1-acylglycerol-3P-15-tetra[c]
lysosomal-enzyme-D-mannose[c]
pantothenate[s]
deoxyhypusine[c]
(ADP-D-ribosyl)n-acceptor[c]
adrenaline[s]
imidazole-4-acetaldehyde[m]
3,3,5-triiodo-L-thyronine-beta-D-glucuronoside[c]
malonyl-carnitin[p]
methionine[s]
hypothiocyanite[c]
aflatoxin M1-8,9-epoxide[c]
pyruvate[m]
tRNA-pseudouridine[c]
7alpha,12alpha-dihydroxycholest-4-en-3-one[c]
5-oxo-(6E)-12-epi-LTB4[m]
10,13,16,19-docosatetraenoylcarnitine[r]
3alpha,7alpha-dihydroxy-5beta-cholestanate[m]
ubiquitin C terminal thiolester[c]
lipoxin B4[r]
5(S)-HpEPE[n]
palmitoleoyl-carnitine[r]
12-hydroperoxyeicosatetraenoate-glyceryl-ester[c]
acetaldehyde[s]
1-acylglycerol-3P-docosa[c]
9,10-hydroxyoctadec-12(Z)-enoate[c]
[protein C terminal]-S-farnesyl-L-cysteine-methyl ester[c]
heptadecanoylcarnitine[m]
D-galactosyl-N-acylsphingosine[g]
1-piperideine-6-carboxylate[p]
tridecanoylcarnitine[m]
CO[s]
1-acylglycerol-3P-10,13,16,19-doco[c]
glycine[s]
4-hydroxy-17beta-estradiol-2-S-glutathione[r]
CMP-N-acetylneuraminate[n]
prostaglandin H2[r]
selenocysteine[c]
(8Z,11Z,14Z,17Z)-eicosatetraenoylcarnitine[m]
stearoylcarnitine[r]
[protein]-N6-(octanoyl)lysine[c]
8(S)-HETE[c]
chenodeoxycholoyl-CoA[p]
III3Fuc-nLc6Cer[s]
18-COOH-LTE4[p]
1-acylglycerol-3P-6,9,12,15,18-tetraco[c]
(6Z,9Z,12Z,15Z,18Z,21Z)-tetracosahexaenoylcarnitine[r]
dodecanoylcarnitine[r]
gamma-glutamylglutathione[c]
9,11,15-trihydroxyprosta-(5Z,13E)-dien-1-oate[c]
7alpha-hydroxycholest-4-en-3-one[c]
4-oxoretinol[c]
13-cis-retinal[c]
ferricytochrome C[c]
choloyl-CoA[m]
N-acetylglucosamine[l]
1-acylglycerol-3P-10-heptade[c]
GD1c[g]
cysteine[s]
[protein]-L-serine[g]
hypoxanthine[s]
6-trans-12-epi-LTB4[c]
N-substituted aminoacyl tRNA[c]
1-alkyl-2-acetyl-sn-glycerol[c]
1-acylglycerol-3P-myrist[c]
adenine[l]
G00086[s]
chenodeoxycholoyl-CoA[r]
mannose[g]
m7G(5')pppm6Am (mRNA containing an N6,2'-O-dimethyladenosine cap)[c]
L-oleoylcarnitine[m]
palmitoleoyl-carnitine[m]
3-methyl-2-oxobutanoate-dehydrogenase[c]
pentadecanoylcarnitine[r]
[protein]-L-isoaspartate[c]
ferricytochrome B5[c]
5-S-glutathionyl-L-dopa[c]
5,6-indolequinone-2-carboxylate[c]
SM pool[g]
benzo[a]pyrene-7,8-oxide[c]
3,5-dihydroxy-3,4-dihydro-1,4-benzothiazine[c]
3-methyl-2-oxobutanoate-dehydrogenase-phosphate[c]
taurodeoxycholate[c]
19-hydroxytestosterone[r]
fucacgalfucgalacglcgalgluside heparan sulfate[s]
2-hydroxyestrone-1-S-glutathione[r]
reduced vitamin K[c]
5-oxo-(6E)-12-epi-LTB4[r]
(18R)-hydroxy-(5Z,8Z,11Z,14Z,16E)-eicosapentaenoic acid[c]
nitrogen[c]
1-acylglycerol-3P-13,16,19-doco[c]
6,7-dihydro-LTB4[m]
4-OH-retinal[r]
sn-glycerol-3-phosphate[p]
tetradecenoylcarnitine(9)[m]
1-acylglycerol-3P-eico[c]
(13Z,16Z)-docosadienoylcarnitine[m]
5,9-cyclo-6,8,12-trihydroxy-(10E,14Z)-eicosadienoic acid[c]
1-acylglycerol-3P-hexecose[c]
octadecenoylcarnitine(11)[m]
2-hydroxyestrone-4-S-glutathione[m]
methanol[r]
CMP-N-acetylneuraminate[g]
PAP[l]
1-acylglycerol-3P-palmn[c]
7alpha-hydroxy-3-oxo-4-cholestenoic acid[m]
6-trans-12-epi-LTB4[m]
O-acetylcarnitine[r]
15(S)-HETrE[c]
15-epi-lipoxin A4[r]
15-epi-lipoxin B5[p]
(6Z,9Z,12Z,15Z)-octadecatetraenoylcarnitine[m]
guanosine[l]
glycoprotein-phospho-D-mannose[c]
globotriaosylceramide[l]
heptadecenoylcarnitine(8)[r]
linoleic-carnitine[m]
mannose[r]
2-hydroxyestradiol-17beta[r]
azelaic acid[c]
1-acylglycerol-3P-9-eicose[c]
docosenoylcarnitine(11)[m]
15-epi-lipoxin B4[p]
octadecatrienoylcarnitine[r]
3alpha,7alpha-dihydroxy-5beta-cholestanate[r]
nonadecanoylcarnitine[r]
12-hydroxy-arachidonate[r]
UDP-galactose[g]
D-xylulose[c]
hydroxypyruvate[m]
docosenoylcarnitine(11)[r]
prostaglandin-PGE2-3-glyceryl ester[c]
3,3,5-triiodo-L-thyronine-beta-D-glucuronoside[r]
peptide-2-[3-carboxy-3-(methylammonio)propyl]-L-histidine[c]
(11Z,14Z,17Z)-eicosatrienoylcarnitine[r]
proline[s]
thiocyanate[s]
4,4-dimethyl-5alpha-cholesta-8,14-dien-3-beta-ol[c]
glucose-1,6-bisphosphate[s]
cystine[s]
15-deoxy-delta-12,14-PGD2[c]
6-oxo-prostaglandin F1alpha[r]
noradrenochrome-O-semiquinone[c]
11,15-cyclo-8,12,14-trihydroxy-(5Z,9E)-eicosadienoic acid[c]
1-acylglycerol-3P-9,12,15,18-tetraco[c]
lc3Cer[c]
15-epi-lipoxin A5[r]
pyridoxal-phosphate[s]
1-acylglycerol-3P-5-tetrade[c]
perillyl aldehyde[c]
18-hydroxy-all-trans-retinoate[r]
creatine-phosphate[m]
docosenoylcarnitine[m]
(5)ppPur-mRNA[c]
1-acylglycerol-3P-6,9,12,15-octa[c]
4-hydroxyvitamin A1[c]
5-oxo-6-trans-LTB4[m]
L-palmitoylcarnitine[m]
20-hydroxy-5S-HETE[c]
[protein]-L-isoaspartate-methyl ester[c]
se-adenosyl-L-selenohomocysteine[n]
deoxyinosine[c]
inosine[m]
6-oxo-prostaglandin E1[c]
2,2-dichloro-1,1-ethanediol[c]
(8Z,11Z)-eicosadienoylcarnitine[m]
6,7-dihydro-12-epi-LTB4[p]
GT1a[s]
isocaproic-aldehyde[m]
4-oxo-9-cis-retinal[c]
glycogen[s]
lipoxin A4[p]
1-acylglycerol-3P-11,14,17-eico[c]
3(S),10(R)-OH-octadeca-6-trans-4,12-cis-trienoate[m]
(6Z,9Z,12Z,15Z,18Z)-tetracosapentaenoylcarnitine[r]
octadecenoylcarnitine(5)[r]
16,18-oxo-18-CoA-dinor-LTE4[p]
L-methionyl-tRNA(met)[c]
deoxycytidine[m]
GQ1b[s]
peptide-L-methionine[c]
tetradecenoylcarnitine(5)[m]
5beta-cholestan-3alpha,7alpha,12alpha-triol[r]
1,4-naphthoquinone[c]
N-pantothenoylcysteine[m]
LTD4[r]
tetradecenoylcarnitine(5)[r]
ocosatetraenoylcarnitine[m]
peptidylproline-(omega=0)[c]
1-acylglycerol-3P-heneico[c]
12-oxo-10,11-dihydro-20-COOH-LTB4[r]
4-N-(n-acetyl-D-glucosaminyl)-protein[c]
1-acylglycerol-3P-heptade[c]
NH4+[m]
4-hydroxyestrone-2-S-glutathione[r]
arachidonyl-carnitine[r]
6,7-dihydro-12-epi-LTB4[c]
acetaldehyde[p]
dihydrolipoamide[m]
1-acylglycerol-3P-4,7,10,13,16,19-doco[c]
coproporphyrin III[c]
aflatoxin Q1[c]
selenomethionine-se-oxide[c]
(11Z,14Z,17Z)-eicosatrienoylcarnitine[m]
(5Z,8Z,11Z)-eicosatrienoylcarnitine[m]
histone-N6-acetyl-L-lysine[c]
1-acylglycerol-3P-8,11-eico[c]
SM pool[l]
GQ1b[g]
(4Z,7Z,10Z,13Z,16Z)-docosapentaenoylcarnitine[m]
2-hydroxyestrone-4-S-glutathione[r]
heptadecanoylcarnitine[r]
(7Z,10Z,13Z,16Z,19Z)-docosapentaenoylcarnitine[m]
leukotriene B4[p]
D-galactosyl-N-acylsphingosine[l]
prostaglandin-PGE2-1-glyceryl ester[c]
(5Z,8Z,11Z,14Z,17Z)-eicosapentaenoylcarnitine[r]
5-guanidino-2-oxopentanoate[p]
peroxynitrite[c]
coproporphyrin I[c]
DNA-5-methylcytosine[n]
4-(methylnitrosamino)-1-(1-oxido-3-pyridinyl)-1-butanone[c]
1-acylglycerol-3P-4,7,10,13,16-docosa[c]
2-hydroxyestrone-4-S-glutathione[p]
1-acylglycerol-3P-7-tetrade[c]
aflatoxin B1 diol[c]
2-hydroxy-17beta-estradiol-1-S-glutathione[p]
taurodeoxycholate[p]
trioxilin A3[r]
3,5,3,5-tetraiodo-L-thyronine-beta-D-glucuronoside[c]
prostaglandin D2[r]
1-acylglycerol-3P-tridec[c]
naphthalene[c]
arginine[s]
12(R)-HPETE[c]
heme[c]
15-keto-prostaglandin F2alpha[c]
1-acylglycerol-3P-13-docose[c]
20-CoA-20-oxo-LTB4[r]
heptadecenoylcarnitine(7)[m]
1-acylglycerol-3P-11,14-eicosa[c]
1,2-dibromoethane[c]
eicosenoylcarnitine(11)[r]
androsterone sulfate[c]
15-oxo-prostaglandin E2-glyceryl ester[c]
8,9-EET[r]
eicosenoylcarnitine(7)[r]
6,7-dihydro-LTB4[p]
1-acylglycerol-3P-gamma-lin[c]
malonate[c]
leukotriene B5[r]
ferrocytochrome B5[c]
linoleic-carnitine[r]
beta-alanine[s]
6,7-dihydro-LTB4[r]
9-hydroxybenzo[a]pyrene-4,5-oxide[c]
14,15-EET[r]
fructoselysine-3-phosphate[c]
(7Z,10Z,13Z,16Z,19Z)-docosapentaenoylcarnitine[r]
dodecanoylcarnitine[m]
octanoyl-CoA[m]
1-acylglycerol-3P-hexacosa[c]
dITP[m]
D-gluconic acid[c]
eicosanoylcarnitine[m]
digalactosylceramide[l]
11-trans-LTE4[c]
hepoxilin A3-c[p]
nLc5Cer[g]
D-xylose[s]
eicosadienoylcarnitine[m]
estrone-3,4-quinone[r]
ubiquinol[m]
tetradecenoylcarnitine(7)[m]
12(S)-HHT[c]
leucine[s]
(S)-3-sulfolactate[m]
GO3P[p]
20-trihydroxy-LTB4[c]
se-adenosylselenomethionine[n]
20alpha-hydroxy-4-pregnen-3-one[s]
heneicosanoylcarnitine[m]
deoxycytidine[s]
O-butanoylcarnitine[m]
3-succinoylpyridine[c]
15-epi-lipoxin A4[c]
m7G(5')pppRm-RNA (mRNA containing a 2'-O-methylpurine cap)[c]
benzo[a]pyrene-7,8-dihydrodiol-9,10-oxide[c]
L-gulonate[r]
triiodothyronine[r]
17beta-estradiol-3,4-quinone[m]
omega-carboxy-trinor-LTB4[p]
4-bromo-3,5-cyclohexadiene-1,2-dione[c]
3-phosphopolynucleotide[c]
(13E)-11alpha-hydroxy-9,15-dioxoprost-13-enoate[c]
7alpha,25-dihydroxy-4-cholesten-3-one[r]
octadecatrienoylcarnitine[m]
chenodiol[r]
20-hydroxy-LTB5[r]
[protein]-L-lysine[s]
histidine[s]
15(S)-HEPE[c]
4,4-dimethyl-5alpha-cholesta-8,14,24-trien-3beta-ol[c]
estrone-3,4-semiquinone[r]
5-oxo-6-trans-LTB4[r]
7-hydroxymethyl-12-methylbenz[a]anthracene sulfate[c]
13-cis-retinoyl-beta-D-glucuronide[r]
14,15-DHET[c]
eicosatrienoylcarnitine[m]
allopregnanolone[c]
eicosenoylcarnitine(11)[m]
(11R)-HPETE[c]
11-dehydro-thromboxane B2[c]
5-aminolevulinate[m]
eicosenoylcarnitine(9)[r]
betaine[s]
15-epi-lipoxin B4[c]
1-acylglycerol-3P-9,12,15,18,21-tetra[c]
1-acylglycerol-3P-6,9-octa[c]
1-alkyl-2-lysoglycerol-3-phosphocholine[s]
lipoyl-[ACP][c]
glycoprotein-N-acetyl-D-glucosaminyl-phospho-D-mannose[c]
Na+[r]
alloxan[s]
12,15,18,21-tetracosatetraenoylcarnitine[r]
N-acetyl-5-methoxykynuramine[c]
[beta-adrenergic-receptor][c]
UDP-N-acetyl-D-galactosamine[g]
12,20-dioxo-LTB4[c]
11-cis-retinol[c]
[methionine synthase]-methylcob(I)alamin[c]
tetracosanoylcarnitine[r]
2-hydroxy-17beta-estradiol-1-S-glutathione[m]
17beta-estradiol-2,3-semiquinone[l]
4-aminobutanal[s]
1-acylglycerol-3P-13-eicose[c]
malonic-dialdehyde[c]
17beta-estradiol-3,4-quinone[r]
thiocyanate[m]
digalactosylceramide[g]
1-acylglycerol-3P-nanode[c]
L-iditol[c]
2-aminoethylphosphonate[c]
succinate[p]
cPMP[c]
III3Fuc-nLc6Cer[g]
1-acylglycerol-3P-13,16-docosa[c]
IV3NeuAc,III3Fuc-nLc4Cer[g]
4,6,7-trihydroxy-1,2,3,4-tetrahydroisoquinoline[c]
CL pool[c]
choloyl-CoA[p]
4-oxo-9-cis-retinoyl-beta-glucuronide[r]
UDP-xylose[g]
5beta-cholestane-3alpha,7alpha-diol[m]
hexadecenoylcarnitine(9)[m]
cocaine[c]
3-monoiodo-L-thyronine[r]
fucacgalfucgalacglcgalgluside heparan sulfate[g]
D-glucurono-6,3-lactone[r]
6-pyruvoyltetrahydropterin[n]
1-acylglycerol-3P-5,8,11,14,17-eico[c]
9-cis-retinal[c]
adenine[s]
peptidylproline-(omega=180)[c]
3,5,3,5-tetraiodo-L-thyronine-beta-D-glucuronoside[r]
prostaglandin-PGB2-glyceryl ester[c]
4-hydroxy-17beta-estradiol-2-S-glutathione[p]
imidazole-4-acetate[m]
m7G(5')pppAm[c]
5-S-glutathionyl-noradrenochrome hydroquinone[c]
1-acylglycerol-3P-dihomo-gamma[c]
1-pyrroline-2-carboxylate[c]
1-lyso-2-arachidonoyl-phosphatidate[c]
4-nitrophenyl-sulfate[s]
2-hydroxyestrone-1-S-glutathione[m]
N-acetylglucosamine[r]
adrenochrome-O-semiquinone[c]
5,8-epoxy-13-cis-retinoate[c]
2-hydroxy-17beta-estradiol-4-S-glutathione[r]
12-oxo-10,11-dihydro-20-COOH-LTB4[c]
1-acylglycerol-VLDL pool[s]
[protein]-L-lysine[n]
1-acylglycerol-3P-9-tetrade[c]
tridecanoylcarnitine[r]
nonanoic acid[c]
heptadecenoylcarnitine(7)[r]
acetoacetate[m]
10-hydroxy-octadec-(12Z)-enoate-9-beta-D-glucuronide[c]
1-acylglycerol-3P-7-octade[c]
docosanoylcarnitine[r]
10,13,16-docosatrienoylcarnitine[r]
4-hydroxyestrone-2-S-glutathione[m]
4-oxo-13-cis-retinoate[r]
fructoseglycine-ketone-3-phosphate[c]
G00082[s]
tRNA containing N7-methylguanine[c]
1-acylglycerol-3P-7,10,13,16,19-docosa[c]
1-acylglycerol-chylomicron pool[s]
6-trans-LTB4[m]
2-phosphoglycolate[c]
IV3NeuAc,III3Fuc-nLc4Cer[s]
guanosine[s]
alkyl-glycerone-3-phosphate[c]
spermidine dialdehyde[s]
selenate[s]
globoside[s]
11beta-hydroxyandrost-4-ene-3,17-dione[c]
3-methyl-2-oxobutyrate[m]
12-epi-LTB4[c]
PNP[s]
dUMP[n]
(1R,2S)-naphthalene 1,2-oxide[s]
tetradecanoylcarnitine[m]
cobamide-coenzyme[m]
norlaudanosoline[c]
peptidylamidoglycolate[c]
valine[s]
trioxilin A3[c]
5-oxo-12(S)-hydroxy-eicosa-(8E,10E,14Z)-trienoyl-CoA[r]
5-oxo-(6E)-12-epi-LTB4[p]
1-acylglycerol-3P-7,10,13,16-docosa[c]
octadecenoylcarnitine(7)[r]
stearoylcarnitine[m]
5(S),6(S)-epoxy-15(R)-HEPE[n]
thiamin-P[s]
O-propanoylcarnitine[m]
malonate[m]
(9Z,12Z,15Z,18Z,21Z)-tetracosapentaenoylcarnitine[r]
5-S-glutathionyl-adrenochrome hydroquinone[c]
A2PE-H2[c]
2-hydroxyestrone-1-S-glutathione[p]
5-amino-2-oxopentanoic acid[p]
1D-myo-inositol-1,3,4,6-tetrakisphosphate[n]
thymidine[l]
L-palmitoylcarnitine[r]
UDP-N-acetyl-D-galactosamine[r]
20-OH-hepoxilin A3[c]
15-epi-lipoxin A4[p]
1-acylglycerol-3P-9-heptade[c]
ureidoglycolate[c]
N-acetyl-D-mannosamine[c]
thymine[c]
methanol[l]
L-arabinose[s]
1-acylglycerol-3P-8,11,14,17-eico[c]
malonyl-carnitin[r]
biotin[c]
2,3-cyclic-UMP[c]
diphospho-myo-inositol-polyphosphate[c]
tRNA containing N2-methylguanine[c]
5(S)-HEPE[p]
4-OH-13-cis-retinal[c]
17beta-estradiol-3,4-semiquinone[l]
11beta-hydroxyandrost-4-ene-3,17-dione[m]
tRNA-uridine[c]
[protein]-N6-(dihydrolipoyl)lysine[c]
12-O-D-glucuronoside-13-hydroxyoctadec-(9Z)-enoate[r]
ethanol[s]
3alpha,7alpha-dihydroxy-5beta-cholestanate[p]
aflatoxin B1-endo-8,9-epoxide[c]
insulin-(SS)[c]
4-hydroperoxy-2-nonenal[c]
9-cis-retinoate[c]
hexacosanoylcarnitine[r]
lipoxin B4[p]
13-oxy-radical-octadecadienoate[c]
(9E)-octadecenoylcarnitine[m]
eicosatrienoylcarnitine[r]
D-xylose[l]
deoxyadenosine[s]
5-S-glutathionyl-dopachrome hydroquinone[c]
5,9,11-trihydroxyprosta-(6E,14Z)-dien-1-oate[c]
10-HETE[r]
1-pyrroline[c]
mitoACP[m]
globoside[l]
gamma-L-glutamyl-L-alanine[c]
4-hydroxy-2-nonenal[c]
mannose[l]
(13E)-tetranor-16-carboxy-LTE4[p]
pregnenolone[r]
chloral[c]
ADP-mannose[s]
CMP[g]
dehydroepiandrosterone[r]
peptide-2-(3-carboxy-3-aminopropyl)-L-histidine[c]
dITP[s]
trans-5,6-dihydro-5,6-dihydroxy-7,12-dimethylbenz[a]anthracene[c]
acetaldehyde[m]
[methionine synthase]-cob(II)alamin[c]
20-hydroxy-LTB5[c]
sulfite[s]
isocaproic-aldehyde[s]
15-epi-lipoxin A5[p]
taurine[s]
tetradecenoylcarnitine(9)[r]
lipoyllysine[c]
methylmalonate[m]
6-hydroxymelatonin-sulfate[c]
2-hydroxyestradiol-17beta[l]
hydroxide[m]
gamma-carboxyethyl-hydroxychroman[m]
1-acylglycerol-3P-pentade[c]


Disconnected products
peptide-L-methionine-(S)-S-oxide[c]
D-mannose-1,6-bisphosphate[c]
haptoglobin[c]
2-oxo-3-methylvalerate[m]
ethanol[p]
(8Z,11Z)-eicosadienoylcarnitine[r]
1-lyso-2-arachidonoyl-phosphatidate[c]
deoxyuridine[c]
pyridoxamine[s]
oxalate[m]
5(S)-HETE[r]
PPARA[c]
hemoglobin[s]
pregnenolone sulfate[r]
O-D-mannosylprotein[c]
dITP[n]
5(S)-HPETE[m]
thymine[c]
D-lactate[m]
phenylacetaldehyde[m]
dopachrome-O-semiquinone[c]
GD1c[s]
steroids[x]
apoC1[c]
benzoate[c]
O-acetylcarnitine[p]
dehydroascorbic acid[s]
eicosadienoylcarnitine[r]
gamma-linolenoylcarnitine[r]
malonate[c]
5-methoxytryptophol[c]
O-phosphoprotamine[c]
xanthurenate[s]
1-hexadecylglycerol-3-phosphate[c]
leukotriene B4[r]
eicosanoylcarnitine[r]
NO[s]
pentadecanoylcarnitine[m]
dIDP[n]
arachidonyl-carnitine[m]
ferrocytochrome C[m]
thymidine[s]
(R)-1,2-dimethyl-5,6-dihydroxy-tetrahydroisoquinoline[c]
ribulose-5-phosphate[r]
leukotriene A4[r]
tRNA-queuine[c]
alpha-hydroxyisocaproic acid[c]
xanthine[p]
N-substituted amino acid[c]
fatty acid-retinol pool[s]
protoporphyrinogen IX[c]
apoE[c]
L-arginyl-protein[c]
lysosomal-enzyme-N-acetyl-D-glucosaminyl-phospho-D-mannose[c]
octadecenoylcarnitine(5)[m]
tetradecenoylcarnitine(7)[r]
aflatoxin B1-exo-8,9-epoxide[s]
13,16,19-docosatrienoylcarnitine[r]
(6Z,9Z)-octadecadienoylcarnitine[m]
prostaglandin G1[c]
sorbitol-3-phosphate[c]
N-tetradecanoylglycylpeptide[c]
dopamine-3-O-sulfate[s]
heneicosanoylcarnitine[r]
tRNA containing 6-isopentenyladenosine[c]
heptadecenoylcarnitine(8)[m]
cholesterol-sulfate[r]
dehydrodolichol-phosphate[c]
O-acetylcarnitine[m]
estrone 3-sulfate[r]
eicosenoylcarnitine(9)[m]
estrone-3,4-quinone[p]
methanol[s]
20-OH-10,11-dihydro-LTB4[c]
1D-myo-inositol-bisdiphosphate-tetrakisphosphate[n]
adrenaline[s]
L-sorbose[c]
2-methyl-3-oxopropanoate[m]
AKG[m]
globoside[s]
tetradecanoylcarnitine[m]
alpha-[3-[(hydroxymethyl)nitrosoamino]propyl]-3-pyridinemethanol[c]
glutathionyl-3-hydroxykynurenine glucoside[c]
eicosenoylcarnitine(7)[m]
6-(alpha-D-glucosaminyl)-1-phosphatidyl-1D-myo-inositol[c]
spermic acid 1[c]
L-octanoylcarnitine[m]
tetradecanoylcarnitine[r]
neurotensin 11-13[c]
IV2Fuc,III4Fuc-Lc4Cer[c]
5alpha-dihydrotestosterone-sulfate[s]
15-oxoETE[c]
acetaldehyde[r]
1,2,3,4-tetrahydro-beta-carboline[c]
malate[m]
hydroxypyruvate[p]
tRNA(met)[c]
nicotinate[c]
ADP-ribose[s]
SM pool[r]
(8Z,11Z,14Z,17Z)-eicosatetraenoylcarnitine[r]
UDP-glucuronate[g]
dimethylamine[c]
pregnenolone[m]
docosahexaenoylcarnitine[m]
biomass[x]
5-oxo-6-trans-LTB4[p]
tridecanoylcarnitine[r]
3,5-diiodo-L-thyronine-beta-D-glucuronoside[c]
10,13,16-docosatrienoylcarnitine[r]
GQ1b[s]
xanthurenate-8-O-beta-D-glucoside[c]
neurotensin 1-10[c]
13-cis-retinal[c]
homocysteine-thiolactone[c]
1-deoxy-1-(N6-lysino)-D-fructose[c]
[protein]-L-serine[l]
adenosine[s]
hexadecenoylcarnitine(9)[r]
galactitol[c]
CMP-N-trimethyl-2-aminoethylphosphonate[c]
pantetheine[m]
thiamin-P[m]
L-octanoylcarnitine[p]
octadecenoylcarnitine(7)[m]
lipoxin A4[c]
17beta-estradiol-3,4-quinone[p]
20-dihydroxy-LTB4[c]
docosanoylcarnitine[m]
9-cis-4-oxo-13,14-dihydro-retinoate[c]
(5Z,8Z,11Z,14Z,17Z)-eicosapentaenoylcarnitine[m]
5(S)-HpEPE[c]
ADP-glucose[s]
(13Z,16Z)-docosadienoylcarnitine[r]
[protein]-L-serine[g]
3-carboxy-alpha-chromanol[m]
cholest-5-ene-3beta,7alpha,24(S)-triol[c]
10,13,16-docosatrienoylcarnitine[m]
docosahexaenoylcarnitine[r]
queuine[c]
(6Z,9Z,12Z,15Z)-octadecatetraenoylcarnitine[r]
UDP[g]
eicosenoylcarnitine(7)[r]
thymidine[m]
tricosanoylcarnitine[r]
hydroxypyruvate[m]
triiodothyronine[r]
histone-L-lysine[c]
pyridoxal-phosphate[s]
sulfate[m]
glycogen[s]
D-glucarate[c]
nonadecanoylcarnitine[m]
(4Z,7Z,10Z,13Z,16Z)-docosapentaenoylcarnitine[r]
iodide[s]
V3Fuc,III3Fuc-nLc6Cer[c]
nitrite[s]
5beta-cholestan-3alpha,7alpha,12alpha-triol[m]
hepoxilin B3[c]
ocosatetraenoylcarnitine[r]
13,16,19-docosatrienoylcarnitine[m]
betaine[c]
GT1a[g]
17beta-estradiol-3,4-quinone[m]
(9E)-octadecenoylcarnitine[r]
peptidylglycine[c]
fructoseglycine[c]
xenobiotics[x]
gamma-linolenoylcarnitine[m]
4-methylpentan-1-ol[c]
neuromedin B(1-3)[c]
G00040[s]
apoB100[c]
acetyl-[ACP][c]
creatinine[c]
estrone-3,4-quinone[m]
10,13,16,19-docosatetraenoylcarnitine[m]
ferrocytochrome C[c]
gamma-L-glutamyl-L-alpha-aminobutyrate[c]
(ADP-D-ribosyl)n+1-acceptor[c]
dTMP[m]
L-dopa[s]
(9Z,12Z,15Z,18Z)-tetracosatetraenoylcarnitine[r]
glycylpeptide[c]
9,10-hydroxyoctadec-12(Z)-enoate[c]
UDP-N-acetyl-D-galactosamine[l]
5-(S-L-cysteinyl)-dopaquinone[c]
putreanine[c]
12,13-hydroxyoctadec-9(z)-enoate[c]
apoC2[c]
H2O[r]
Na+[p]
propanoyl-[ACP][c]
Fe3+[c]
hexacosenoylcarnitine[r]
acetylcarnosine[c]
docosenoylcarnitine[r]
dehydroepiandrosterone sulfate[r]
anandamide[c]
progesterone[s]
vitamin K epoxide[c]
selenophosphate[c]
deoxycytidine[n]
fructose-3-phosphate[c]
lysosomal-enzyme-D-mannose[c]
deoxyhypusine[c]
(ADP-D-ribosyl)n-acceptor[c]
salsoline[c]
imidazole-4-acetaldehyde[m]
malonyl-carnitin[p]
stearoylcarnitine[m]
antichymotrypsin[c]
hypothiocyanite[c]
pyruvate[m]
tRNA-pseudouridine[c]
apoC3[c]
5-oxo-(6E)-12-epi-LTB4[m]
10,13,16,19-docosatetraenoylcarnitine[r]
palmitoleoyl-carnitine[r]
hypoxanthine[s]
ecgonine-methyl ester[c]
acetaldehyde[s]
peptide-3-hydroxy-L-aspartate[c]
2-(alpha-hydroxyethyl)thiamine-diphosphate[c]
heptadecanoylcarnitine[m]
1-piperideine-6-carboxylate[p]
tridecanoylcarnitine[m]
CO[s]
A2PE-H2[c]
CMP-N-acetylneuraminate[n]
tyramine-O-sulfate[s]
prostaglandin H2[r]
(8Z,11Z,14Z,17Z)-eicosatetraenoylcarnitine[m]
stearoylcarnitine[r]
mitoApo-[ACP][c]
chenodeoxycholoyl-CoA[p]
III3Fuc-nLc6Cer[s]
3-deoxy-D-glycero-D-galacto-2-nonulosonic acid[c]
(6Z,9Z,12Z,15Z,18Z,21Z)-tetracosahexaenoylcarnitine[r]
gamma-glutamylglutathione[c]
III3Fuc-nLc4Cer[c]
2-hydroxyglutarate[c]
ferricytochrome C[c]
choloyl-CoA[m]
GD1c[g]
N-acetyl-beta-D-glucosaminylamine[c]
1-alkyl-2-acetyl-sn-glycerol[c]
adenine[l]
2-hydroxy-3-(4-hydroxyphenyl)propenoate[c]
G00086[s]
chenodeoxycholoyl-CoA[r]
m7G(5')pppm6Am (mRNA containing an N6,2'-O-dimethyladenosine cap)[c]
L-oleoylcarnitine[m]
malonyl-carnitin[m]
palmitoleoyl-carnitine[m]
3-methyl-2-oxobutanoate-dehydrogenase[c]
pentadecanoylcarnitine[r]
[protein]-L-isoaspartate[c]
bile-PC pool[s]
5-S-glutathionyl-L-dopa[c]
[protein C terminal]-S-farnesyl-L-cysteine[c]
SM pool[g]
benzo[a]pyrene-7,8-oxide[c]
3-methyl-2-oxobutanoate-dehydrogenase-phosphate[c]
fucacgalfucgalacglcgalgluside heparan sulfate[s]
reduced vitamin K[c]
5-oxo-(6E)-12-epi-LTB4[r]
cinnavalininate[c]
sn-glycerol-3-phosphate[p]
tetradecenoylcarnitine(9)[m]
trichloroacetate[c]
(13Z,16Z)-docosadienoylcarnitine[m]
octadecenoylcarnitine(11)[m]
methanol[r]
CMP-N-acetylneuraminate[g]
17alpha,21-dihydroxypregnenolone[c]
O-acetylcarnitine[r]
(6Z,9Z,12Z,15Z)-octadecatetraenoylcarnitine[m]
3-mercaptolactate-cysteine-disulfide[c]
guanosine[l]
glycoprotein-phospho-D-mannose[c]
globotriaosylceramide[l]
heptadecenoylcarnitine(8)[r]
linoleic-carnitine[m]
docosenoylcarnitine(11)[m]
octadecatrienoylcarnitine[r]
3alpha,7alpha-dihydroxy-5beta-cholestanate[r]
nonadecanoylcarnitine[r]
mitothioredoxin[c]
L-oleoylcarnitine[r]
2-S-glutathionyl acetate[c]
docosenoylcarnitine(11)[r]
malonyl-carnitin[r]
eicosatrienoylcarnitine[m]
peptide-2-[3-carboxy-3-(methylammonio)propyl]-L-histidine[c]
(11Z,14Z,17Z)-eicosatrienoylcarnitine[r]
thiocyanate[s]
pregnenolone[r]
1-(1-alkenyl)-sn-glycero-3-phosphate[c]
O-propanoylcarnitine[p]
noradrenochrome-O-semiquinone[c]
leukotriene A4[n]
O-methylhippurate[c]
harman[c]
docosenoylcarnitine[m]
(5)ppPur-mRNA[c]
5-oxo-6-trans-LTB4[m]
L-palmitoylcarnitine[m]
[protein]-L-isoaspartate-methyl ester[c]
se-adenosyl-L-selenohomocysteine[n]
deoxyinosine[c]
inosine[m]
(8Z,11Z)-eicosadienoylcarnitine[m]
3alpha,7alpha-dihydroxy-5beta-cholestanate[m]
GT1a[s]
(6Z,9Z,12Z,15Z,18Z)-tetracosapentaenoylcarnitine[r]
octadecenoylcarnitine(5)[r]
sn-glycerol-3-phosphate[m]
(15Z)-tetracosenoylcarnitine[r]
deoxycytidine[m]
peptide-L-methionine[c]
5beta-cholestan-3alpha,7alpha,12alpha-triol[r]
N-pantothenoylcysteine[m]
LTD4[r]
tetradecenoylcarnitine(5)[r]
ocosatetraenoylcarnitine[m]
albumin[c]
malonyl-[ACP][c]
peptidylproline-(omega=0)[c]
cholate[r]
5,6-dihydroxyindole-2-carboxylate[c]
NH4+[m]
arachidonyl-carnitine[r]
acetaldehyde[p]
dihydrolipoamide[m]
3alpha,7alpha-dihydroxy-5beta-cholestanate[p]
(S)-3-sulfolactate[s]
S-(2-chloroacetyl)glutathione[c]
coproporphyrin III[c]
[protein]-N-ubiquityllysine[c]
(11Z,14Z,17Z)-eicosatrienoylcarnitine[m]
(5Z,8Z,11Z)-eicosatrienoylcarnitine[m]
histone-N6-acetyl-L-lysine[c]
SM pool[l]
GQ1b[g]
(4Z,7Z,10Z,13Z,16Z)-docosapentaenoylcarnitine[m]
heptadecanoylcarnitine[r]
(7Z,10Z,13Z,16Z,19Z)-docosapentaenoylcarnitine[m]
leukotriene B4[p]
D-galactosyl-N-acylsphingosine[l]
(5Z,8Z,11Z,14Z,17Z)-eicosapentaenoylcarnitine[r]
5beta-cholestane-3alpha,7alpha-diol[m]
coproporphyrin I[c]
CMP-2-aminoethylphosphonate[c]
thiol[c]
4,4-dimethyl-14alpha-hydroxymethyl-5alpha-cholesta-8-en-3beta-ol[c]
fibrinogen[c]
beta-D-mannosyldiacetylchitobiosyldiphosphodolichol[c]
prostaglandin D2[r]
20-CoA-20-oxo-LTB4[r]
heptadecenoylcarnitine(7)[m]
STAR[c]
1-(methylnitrosoamino)-4-(3-pyridinyl)-1,4-butanediol[c]
glycinamide[c]
eicosenoylcarnitine(11)[r]
androsterone sulfate[c]
isoputreanine[c]
leukotriene E4[p]
leukotriene B5[r]
ferricytochrome B5[c]
LPL[c]
ferrocytochrome B5[c]
linoleic-carnitine[r]
3-UMP[c]
fructoselysine-3-phosphate[c]
(7Z,10Z,13Z,16Z,19Z)-docosapentaenoylcarnitine[r]
dodecanoylcarnitine[m]
octanoyl-CoA[m]
dITP[m]
tetracosanoylcarnitine[r]
D-gluconic acid[c]
eicosanoylcarnitine[m]
prothrombin[c]
digalactosylceramide[l]
dolichyl-diphosphate[c]
D-xylose[s]
III3,IV2Fuc-nLc4Cer[c]
eicosadienoylcarnitine[m]
estrone-3,4-quinone[r]
5-S-glutathionyl-dopamine[c]
GM2A[c]
se-adenosylselenomethionine[n]
20alpha-hydroxy-4-pregnen-3-one[s]
heneicosanoylcarnitine[m]
Insulin-(SH)2[c]
deoxycytidine[s]
O-butanoylcarnitine[m]
(6Z,9Z)-octadecadienoylcarnitine[r]
m7G(5')pppRm-RNA (mRNA containing a 2'-O-methylpurine cap)[c]
tetradecenoylcarnitine(7)[m]
(5Z,8Z,11Z)-eicosatrienoylcarnitine[r]
4-hydroxyphenylacetate[c]
D-galactosyl-N-acylsphingosine[g]
L-arabitol[s]
arachidonate derivatives[x]
dodecanoylcarnitine[r]
octadecatrienoylcarnitine[m]
chenodiol[r]
[protein]-L-lysine[s]
glucose-1,6-bisphosphate[s]
5-oxo-6-trans-LTB4[r]
perillic acid[c]
allopregnanolone[c]
eicosenoylcarnitine(11)[m]
others[x]
eicosenoylcarnitine(9)[r]
neuromedin B(4-10)[c]
1-alkyl-2-lysoglycerol-3-phosphocholine[s]
glycoprotein-N-acetyl-D-glucosaminyl-phospho-D-mannose[c]
Na+[r]
alloxan[s]
12,15,18,21-tetracosatetraenoylcarnitine[r]
fructose-1-phosphate[c]
UDP-N-acetyl-D-galactosamine[g]
[methionine synthase]-methylcob(I)alamin[c]
fuc-Lc4Cer[c]
17beta-estradiol-2,3-semiquinone[l]
4-aminobutanal[s]
17beta-estradiol-3,4-quinone[r]
glycerate[s]
digalactosylceramide[g]
L-iditol[c]
succinate[p]
III3Fuc-nLc6Cer[g]
IV3NeuAc,III3Fuc-nLc4Cer[g]
salsoline-1-carboxylate[c]
choloyl-CoA[p]
hexadecenoylcarnitine(9)[m]
10,11-dihydro-LTB4-CoA[p]
2-hydroxy-3-phenylpropenoate[c]
fucacgalfucgalacglcgalgluside heparan sulfate[g]
D-glucurono-6,3-lactone[r]
9-cis-retinal[c]
adenine[s]
peptidylproline-(omega=180)[c]
antitrypsin[c]
methylimidazoleacetic acid[c]
m7G(5')pppAm[c]
5-S-glutathionyl-noradrenochrome hydroquinone[c]
4-imidazolone-5-propanoate[c]
oxalate[s]
2-acyl-1-(1-alkenyl)-sn-glycero-3-phosphate[c]
3-methoxy-4-hydroxyphenylethyleneglycol[c]
4-nitrophenyl-sulfate[s]
N-acetylglucosamine[r]
adrenochrome-O-semiquinone[c]
glutamate[s]
polynucleotide[c]
[protein]-L-lysine[n]
phospho-[beta adrenergic receptor][c]
nonanoic acid[c]
heptadecenoylcarnitine(7)[r]
acetoacetate[m]
plasminogen[c]
docosanoylcarnitine[r]
noladin-ether[c]
apocytochrome-C[c]
hordenine[c]
fructoseglycine-ketone-3-phosphate[c]
G00082[s]
tRNA containing N7-methylguanine[c]
IV3NeuAc,III3Fuc-nLc4Cer[s]
guanosine[s]
tetrahydropteroyltri-L-glutamate[c]
isopentenyl-pPP[p]
3-methyl-2-oxobutyrate[m]
PNP[s]
dUMP[n]
(1R,2S)-naphthalene 1,2-oxide[s]
norlaudanosoline[c]
peptidylamidoglycolate[c]
10,11-dihydro-LTB4-CoA[r]
5-oxo-(6E)-12-epi-LTB4[p]
octadecenoylcarnitine(7)[r]
[apotransferin][c]
thiamin-P[s]
O-propanoylcarnitine[m]
malonate[m]
(9Z,12Z,15Z,18Z,21Z)-tetracosapentaenoylcarnitine[r]
5-S-glutathionyl-adrenochrome hydroquinone[c]
tRNA(gln)[c]
1D-myo-inositol-1,3,4,6-tetrakisphosphate[n]
thymidine[l]
L-palmitoylcarnitine[r]
5-deoxyadenosine[c]
UDP-N-acetyl-D-galactosamine[r]
phenylacetate[c]
leukotriene E4[n]
dTMP[l]
methanol[l]
L-arabinose[s]
10,11-dihydro-LTB4-CoA[m]
hypoxanthine[p]
tRNA containing N2-methylguanine[c]
17beta-estradiol-3,4-semiquinone[l]
tRNA-uridine[c]
[protein]-N6-(dihydrolipoyl)lysine[c]
tetradecenoylcarnitine(5)[m]
ethanol[s]
11-cis-retinal[c]
4-hydroperoxy-2-nonenal[c]
N-acetylneuraminate[c]
hexacosanoylcarnitine[r]
13-oxy-radical-octadecadienoate[c]
(9E)-octadecenoylcarnitine[m]
5,6-dihydroxyindole[c]
eicosatrienoylcarnitine[r]
deoxyadenosine[s]
5-S-glutathionyl-dopachrome hydroquinone[c]
myo-inositol-polyphosphate[c]
1-pyrroline[c]
5-aminolevulinate[m]
thiocysteine[c]
globoside[l]
gamma-L-glutamyl-L-alanine[c]
ADP-mannose[s]
CMP[g]
dehydroepiandrosterone[r]
peptide-2-(3-carboxy-3-aminopropyl)-L-histidine[c]
anhydroretinol[c]
dITP[s]
pregn-5-ene-3,20-dione-17-ol[c]
acetaldehyde[m]
[methionine synthase]-cob(II)alamin[c]
sulfite[s]
isocaproic-aldehyde[s]
tetradecenoylcarnitine(9)[r]
V3(NeuAc)2-Gb5Cer[c]
fuc-3-isoLM1[c]
lipoyllysine[c]
oxytocin 1-8[c]
methylmalonate[m]
5beta-cholestane-3alpha,7alpha,26-triol[m]
6-hydroxymelatonin-sulfate[c]
homovanillate[s]
hydroxide[m]
octadecenoylcarnitine(11)[r]
