Disconnected reactants
chondroitin sulfate D (GlcNAc6S-GlcA2S) proteoglycan[l]
4-(2-amino-3-hydroxyphenyl)-4-oxobutanoic acid-O-glucoside[c]
plasminogen[s]
glucuronate[c]
16alpha-hydroxyestrone[r]
2-hydroxyestrone-4-S-glutathione[c]
cytochrome-C[m]
3-O-methyldopa[c]
PPARA[l]
FADH2[c]
16alpha-hydroxyestrone[c]
CoA[l]
2-hydroxy-17beta-estradiol-4-S-glutathione[p]
albumin[s]
cholesterol[r]
cholesterol[m]
4-hydroxyestrone-2-S-glutathione[c]
n2m2nmasn[l]
sphingosine[c]
acetyl-CoA[n]
2-hydroxyestrone-1-S-glutathione[c]
haptoglobin[s]
NADH[c]
estrone-2,3-semiquinone[l]
N-acetylglucosamine[r]
4-hydroxyestrone-2-S-glutathione[p]
2-hydroxy-17beta-estradiol-1-S-glutathione[m]
chondroitin sulfate B - dermatan sulfate (IdoA2S-GalNAc4S), free chain[l]
cholesterol[c]
formaldehyde[c]
O2[l]
4,6,7-trihydroxy-1,2,3,4-tetrahydroisoquinoline[c]
acetyl-CoA[g]
VLDL remnant[l]
CoA[g]
4-hydroxy-17beta-estradiol[c]
antichymotrypsin[s]
chylomicron remnant[l]
CoA[m]
chondroitin sulfate B - dermatan sulfate (IdoA2S-GalNAc4S), degradation product 1[l]
4-hydroxy-2-nonenal[c]
2-hydroxyestrone-4-S-glutathione[m]
4-(methylnitrosamino)-1-(1-oxido-3-pyridinyl)-1-butanone[c]
4-hydroxy-17beta-estradiol-2-S-glutathione[p]
2-hydroxyestradiol-17beta[r]
apoA1[s]
vitamin A derivatives[c]
estrone-3,4-semiquinone[l]
sulfate[c]
2-hydroxyestrone-1-S-glutathione[m]
ATP[c]
2-methoxyestrone[r]
4-methoxyestrone[c]
2-hydroxy-17beta-estradiol-4-S-glutathione[r]
4-hydroxyestrone-2-S-glutathione[r]
antitrypsin[s]
2-hydroxy-3-methoxy-17beta-estradiol[c]
2-hydroxyestrone-1-S-glutathione[p]
4-hydroxyestrone-2-S-glutathione[m]
apocytochrome-C[c]
vitamin D derivatives[c]
keratan sulfate II (core 4-linked)[s]
de-Fuc form of PA6[l]
27alpha-hydroxy-7-dehydrocholesterol[c]
4,8-dihydroxyquinoline[c]
UDP[c]
3-monoiodo-L-thyronine[r]
2-hydroxyestrone-4-S-glutathione[r]
2-methoxyestrone[c]
chondroitin sulfate A (GalNAc4S-GlcA), degradation product 1[l]
17beta-estradiol-3,4-semiquinone[c]
prothrombin[s]
cobamide-coenzyme[m]
globoside[c]
4-hydroxy-17beta-estradiol-2-S-glutathione[c]
methanol[c]
4-hydroxy-17beta-estradiol-2-S-glutathione[r]
2-hydroxy-17beta-estradiol-1-S-glutathione[p]
2-hydroxy-3-methoxyestrone[c]
UDP-N-acetyl-D-galactosamine[c]
keratan sulfate II (core 2-linked)[s]
vitamin E derivatives[c]
hyaluronate[s]
21-hydroxyallopregnanolone[c]
CoA[r]
STAR[c]
globotriaosylceramide[c]
heparan sulfate proteoglycan[l]
2-hydroxy-17beta-estradiol-4-S-glutathione[c]
4,6-dihydroxyquinoline[c]
biotin[c]
acetyl-CoA[p]
digalactosylceramide[c]
L-carnitine[c]
keratan sulfate I, degradation product 1[l]
psychosine[c]
2-methoxyestradiol-17beta[c]
methaneselenol[c]
2-hydroxyestrone-4-S-glutathione[p]
2-hydroxy-17beta-estradiol-1-S-glutathione[r]
NADPH[l]
estrone-2,3-semiquinone[r]
4-methoxy-17beta-estradiol[c]
CoA[n]
F1alpha[g]
19-hydroxytestosterone[r]
2-hydroxyestrone-1-S-glutathione[r]
ubiquinol[m]
4-hydroxy-17beta-estradiol-2-S-glutathione[m]
3alpha,7alpha,12alpha,25-tetrahydroxy-5beta-cholestane-24-one[r]
LDL remnant[l]
[protein]-N6-(lipoyl)lysine[c]
GM2A[c]
2-hydroxy-17beta-estradiol-1-S-glutathione[c]
chondroitin sulfate A (GalNAc4S-GlcA), free chain[l]
fibrinogen[s]
THF[c]
NADPH[c]
3alpha-hydroxy-5alpha-pregnan-20-one[c]
[apotransferin][s]
2-hydroxy-17beta-estradiol-4-S-glutathione[m]
17beta-estradiol-2,3-semiquinone[c]
N-acetylneuraminate[c]
estrone-3,4-semiquinone[r]
tetrahydrobiopterin[c]
chondroitin sulfate C (GalNAc6S-GlcA) proteoglycan[l]
riboflavin[c]
chondroitin sulfate E (GalNAc4,6diS-GlcA), free chain[l]
CoA[p]
estrone[l]


Disconnected products
10,13,16,19-docosatetraenoic acid[c]
glucuronate[c]
10,13,16-docosatriynoic acid[c]
PI pool[l]
cofactors and vitamins[c]
stearidonic acid[c]
TAG-LD pool[l]
9-heptadecylenic acid[c]
tyrosine[c]
Pi[c]
CoA[l]
chondroitin sulfate A (GalNAc4S-GlcA), degradation product 4[l]
cholesterol[r]
cholesterol[m]
DPA[c]
sphingosine[c]
acetyl-CoA[n]
17beta-estradiol-3,4-semiquinone[c]
NADP+[l]
ximenic acid[c]
palmitolate[c]
estrone-2,3-semiquinone[l]
nonadecylic acid[c]
lignocerate[c]
steroids[x]
cholesterol[c]
leucine[c]
formaldehyde[c]
(6Z,9Z)-octadecadienoic acid[c]
eicosanoate[c]
tricosanoic acid[c]
acetyl-CoA[g]
CoA[g]
gamma-linolenate[c]
4-hydroxy-17beta-estradiol[c]
(11Z,14Z)-eicosadienoic acid[c]
fatty acid-LD-TG1 pool[c]
dihomo-gamma-linolenate[c]
12,15,18,21-tetracosatetraenoic acid[c]
CoA[m]
behenic acid[c]
(10Z)-heptadecenoic acid[c]
globoside[c]
fatty acid-LD-PC pool[c]
7-palmitoleic acid[c]
estrone-3,4-semiquinone[l]
sulfate[c]
N-acetylglucosamine[r]
cis-erucic acid[c]
serine[c]
proline[c]
N-acetylglucosamine[c]
chondroitin sulfate D (GlcNAc6S-GlcA2S), degradation product 6[l]
(7Z)-octadecenoic acid[c]
methionine[c]
glutamine[c]
galactose[c]
lysine[c]
DHA[c]
pentadecylic acid[c]
[protein]-L-asparagine[l]
linoleate[c]
elaidate[c]
isoleucine[c]
SM pool[l]
chondroitin sulfate C (GalNAc6S-GlcA), degradation product 5[l]
N-acetylgalactosamine[l]
nervonic acid[c]
palmitate[c]
glycine[c]
(6Z,9Z,12Z,15Z,18Z)-TPA[c]
henicosanoic acid[c]
lauric acid[c]
methanol[c]
oleate[c]
(11Z,14Z,17Z)-eicosatrienoic acid[c]
PS-LD pool[l]
UDP-N-acetyl-D-galactosamine[c]
glucose[c]
threonine[c]
cis-gondoic acid[c]
13,16,19-docosatrienoic acid[c]
9-eicosenoic acid[c]
CoA[r]
(7Z)-tetradecenoic acid[c]
(9Z,12Z,15Z,18Z,21Z)-TPA[c]
globotriaosylceramide[c]
cis-vaccenic acid[c]
adrenic acid[c]
cysteine[c]
tryptophan[c]
acetyl-CoA[p]
digalactosylceramide[c]
PE-LD pool[l]
EPA[c]
glutamate[c]
psychosine[c]
heparan sulfate, degradation product 23[l]
aspartate[c]
valine[c]
(9E)-tetradecenoic acid[c]
SM pool[c]
asparagine[c]
mead acid[c]
arachidonate[c]
mannose[c]
(6Z,9Z,12Z,15Z,18Z,21Z)-THA[c]
[protein]-L-serine[l]
CoA[n]
alanine[c]
F1alpha[g]
CDP-diacylglycerol-LD-PI pool[l]
physeteric acid[c]
histidine[c]
(13Z)-octadecenoic acid[c]
Tn-antigen[l]
tridecylic acid[c]
ADP[c]
2-lysolecithin pool[r]
arginine[c]
cis-cetoleic acid[c]
8,11-eicosadienoic acid[c]
phenylalanine[c]
cerotic acid[c]
stearate[c]
margaric acid[c]
L-iduronic acid[l]
linolenate[c]
UDP[c]
(13Z)-eicosenoic acid[c]
17beta-estradiol-2,3-semiquinone[c]
(9Z,12Z,15Z,18Z)-TTA[c]
N-acetylneuraminate[c]
omega-3-arachidonic acid[c]
(13Z,16Z)-docosadienoic acid[c]
(4Z,7Z,10Z,13Z,16Z)-DPA[c]
CoA[p]
myristic acid[c]
chondroitin sulfate E (GalNAc4,6diS-GlcA), degradation product 7[l]
